<?xml version="1.0" encoding="UTF-8"?>
<kml xmlns="http://www.opengis.net/kml/2.2" xmlns:gx="http://www.google.com/kml/ext/2.2" xmlns:kml="http://www.opengis.net/kml/2.2" xmlns:atom="http://www.w3.org/2005/Atom">
<Document>
	<name>OLIMPIC LANES.kml</name>
	<Style id="sn_ylw-pushpin">
		<IconStyle>
			<scale>1.1</scale>
			<Icon>
				<href>http://maps.google.com/mapfiles/kml/pushpin/ylw-pushpin.png</href>
			</Icon>
			<hotSpot x="20" y="2" xunits="pixels" yunits="pixels"/>
		</IconStyle>
		<PolyStyle>
			<color>80ffffff</color>
		</PolyStyle>
	</Style>
	<StyleMap id="msn_ylw-pushpin">
		<Pair>
			<key>normal</key>
			<styleUrl>#sn_ylw-pushpin</styleUrl>
		</Pair>
		<Pair>
			<key>highlight</key>
			<styleUrl>#sh_ylw-pushpin</styleUrl>
		</Pair>
	</StyleMap>
	<Style id="sh_ylw-pushpin">
		<IconStyle>
			<scale>1.3</scale>
			<Icon>
				<href>http://maps.google.com/mapfiles/kml/pushpin/ylw-pushpin.png</href>
			</Icon>
			<hotSpot x="20" y="2" xunits="pixels" yunits="pixels"/>
		</IconStyle>
		<PolyStyle>
			<color>80ffffff</color>
		</PolyStyle>
	</Style>
	<Folder>
		<name>OLIMPIC LANES</name>
		<open>1</open>
		<Placemark>
			<name>FUNDAO-AVBRASIL VIA BRT</name>
			<styleUrl>#msn_ylw-pushpin</styleUrl>
			<Polygon>
				<tessellate>1</tessellate>
				<outerBoundaryIs>
					<LinearRing>
						<coordinates>
							-43.24061173963699,-22.84185417870976,0 -43.24013224611629,-22.84462899488991,0 -43.24507223197098,-22.84542227155745,0 -43.25004608841733,-22.85047227161774,0 -43.24946337093899,-22.8526584181912,0 -43.252281217001,-22.85339509691771,0 -43.25089959239713,-22.85620004552448,0 -43.24879239817328,-22.85526950264401,0 -43.24887976608031,-22.86662023166662,0 -43.24765027417509,-22.87118610169457,0 -43.24230954913461,-22.87851789636984,0 -43.24026420429094,-22.87724809551041,0 -43.24587511864751,-22.86987747073339,0 -43.24617949814118,-22.85469836669858,0 -43.24717618080718,-22.85331901948843,0 -43.24765450061459,-22.85175699984347,0 -43.24386737362416,-22.8485343200945,0 -43.24017448314338,-22.84757818936769,0 -43.2373919695052,-22.84570889582217,0 -43.23784283384976,-22.84258338588572,0 -43.23812800352823,-22.84094434879767,0 -43.23999421615155,-22.83774422224404,0 -43.24298039042927,-22.83909063282104,0 -43.24061173963699,-22.84185417870976,0 
						</coordinates>
					</LinearRing>
				</outerBoundaryIs>
			</Polygon>
		</Placemark>
		<Placemark>
			<name>VILA-DEODORO</name>
			<styleUrl>#msn_ylw-pushpin</styleUrl>
			<Polygon>
				<tessellate>1</tessellate>
				<outerBoundaryIs>
					<LinearRing>
						<coordinates>
							-43.41604262948842,-22.86340443141504,0 -43.4175690548914,-22.86464578204609,0 -43.41735571183688,-22.86656864092997,0 -43.4155824665592,-22.86853863729938,0 -43.41195512889691,-22.870195763789,0 -43.40442930728665,-22.87766284753261,0 -43.4007216795476,-22.87914115057235,0 -43.40035895103271,-22.88040624386869,0 -43.40170384477119,-22.88742095188915,0 -43.40134472423986,-22.89168302975587,0 -43.39900290789587,-22.89660035627808,0 -43.39814767055217,-22.89951667686739,0 -43.39860794172148,-22.90158802587395,0 -43.40017678043849,-22.90636527576733,0 -43.40142434748053,-22.91119275896127,0 -43.40116978025907,-22.91273955781812,0 -43.39973126043965,-22.91467582394261,0 -43.39731328105957,-22.91704608301571,0 -43.39684244800132,-22.91947326751537,0 -43.3983118956546,-22.92297306490211,0 -43.3980489299841,-22.92528537031282,0 -43.39570651838713,-22.92978510025224,0 -43.39568033543249,-22.93111473759272,0 -43.3962983199458,-22.93449499826085,0 -43.39471442883808,-22.94574414282241,0 -43.39365533007591,-22.94712596162669,0 -43.39105083555592,-22.94870422545472,0 -43.39003486295233,-22.95094993405135,0 -43.3904827218627,-22.95246024908331,0 -43.39348692362572,-22.95608098613978,0 -43.39393892616096,-22.9578788931576,0 -43.39366386207367,-22.95854859354915,0 -43.39219037618182,-22.96062087335065,0 -43.39237823969093,-22.96126350122646,0 -43.4026945972246,-22.97211023661034,0 -43.40416456650558,-22.97336467209606,0 -43.41541368907805,-22.98739044886036,0 -43.41820062734115,-22.98907139973988,0 -43.41962161560684,-22.98956490617235,0 -43.41992125285687,-22.99048401567793,0 -43.4186590147119,-22.99090773867476,0 -43.4175182096597,-22.99058022259733,0 -43.41445568071722,-22.98822226655714,0 -43.40433208424901,-22.97580260239835,0 -43.40265375045112,-22.97361960084634,0 -43.40097432217744,-22.97268627988591,0 -43.39212693113106,-22.96291244462384,0 -43.39085844837598,-22.96046501412237,0 -43.39146991498755,-22.95900159652646,0 -43.39278413869607,-22.95751027860086,0 -43.39260520899752,-22.95656945693348,0 -43.38934564493798,-22.95279198223507,0 -43.38898772705149,-22.95064647571455,0 -43.38975314278512,-22.94835831420968,0 -43.39243884505906,-22.94654902147626,0 -43.39332048040355,-22.9454238926452,0 -43.39410020114636,-22.93840986632594,0 -43.39506086203477,-22.93457985762535,0 -43.39422124285571,-22.93066596128103,0 -43.39455895980402,-22.92894175967668,0 -43.3970601579688,-22.92474168661685,0 -43.39712868149137,-22.92351948694541,0 -43.39586508397966,-22.91981554156587,0 -43.39596127749248,-22.91741894588217,0 -43.39675895724013,-22.91605904695544,0 -43.39974171169641,-22.91260355190316,0 -43.40012745007351,-22.91133596531179,0 -43.3987759574736,-22.9060249904458,0 -43.39705236107683,-22.8990986968276,0 -43.39762359978292,-22.89637151757046,0 -43.39959203202982,-22.89162787287179,0 -43.40014987368684,-22.88807948775144,0 -43.3988401826909,-22.8802096878799,0 -43.40003556699902,-22.87836544528305,0 -43.4017058740438,-22.87735653269741,0 -43.40378010520872,-22.87642158331796,0 -43.41065852564419,-22.86916502586879,0 -43.41435675766601,-22.86779172146112,0 -43.41595109801384,-22.86571090341146,0 -43.4151979585202,-22.86402621251217,0 -43.41604262948842,-22.86340443141504,0 
						</coordinates>
					</LinearRing>
				</outerBoundaryIs>
			</Polygon>
		</Placemark>
		<Placemark>
			<name>VILA-ZONASUL</name>
			<styleUrl>#msn_ylw-pushpin</styleUrl>
			<Polygon>
				<tessellate>1</tessellate>
				<outerBoundaryIs>
					<LinearRing>
						<coordinates>
							-43.41991913629145,-22.99018369760307,0 -43.42521050889109,-22.99614081704674,0 -43.42773667880828,-22.99742086536503,0 -43.44029807633709,-23.00754213010719,0 -43.43935542129203,-23.00917098169144,0 -43.43675150767389,-23.00769299875937,0 -43.43156785481905,-23.00658286746481,0 -43.42280404232755,-23.00343374912053,0 -43.41385666632304,-23.00124747091764,0 -43.40649432851144,-23.00115516881303,0 -43.38875166135001,-23.00146568319954,0 -43.36927848715018,-23.00130663431268,0 -43.34754236921003,-23.00099344708275,0 -43.33013151740555,-23.00220761452128,0 -43.32537930132246,-23.00406532607332,0 -43.31712334945372,-23.00687000560305,0 -43.3112004904274,-23.00785188257591,0 -43.30531771408533,-23.00777875859127,0 -43.30327053684903,-23.01049656994267,0 -43.29979933358618,-23.01300446200629,0 -43.29664178881161,-23.01420319363966,0 -43.28805359908202,-23.01132934021518,0 -43.28509048239123,-23.00945698542368,0 -43.27950609354836,-23.00662139426168,0 -43.27591708532558,-23.00417088179072,0 -43.27244102351175,-23.00090894290279,0 -43.27056497857406,-23.00052552022886,0 -43.27020336946715,-23.0011189165355,0 -43.2557081459581,-22.99945355797419,0 -43.25243915287697,-22.99957167714763,0 -43.24869815787304,-22.99995698166786,0 -43.24771297149415,-23.00098757393774,0 -43.24472488231735,-23.0021161490348,0 -43.24278347835159,-23.00084881344694,0 -43.24009678628362,-23.00081279583463,0 -43.23915946238349,-22.99857460902907,0 -43.23612494331023,-22.99739427534431,0 -43.23440092365902,-22.99583036755174,0 -43.23290570823293,-22.99436527179848,0 -43.23316623288235,-22.99267277065279,0 -43.23232936888592,-22.99194411259327,0 -43.23074933146368,-22.99142763710986,0 -43.22927745279218,-22.99168542595904,0 -43.22649084835501,-22.9902277911302,0 -43.22662143077097,-22.9890235671012,0 -43.21652138647963,-22.98685974905956,0 -43.19834895084286,-22.98775028231708,0 -43.19501002942459,-22.98893346953251,0 -43.1883641451029,-22.98731455437969,0 -43.19011338701291,-22.98190772351097,0 -43.18925716004697,-22.97633533989324,0 -43.18666786732396,-22.97209596016056,0 -43.1819572693714,-22.96802975258168,0 -43.18021299907549,-22.96788658540168,0 -43.17520544647104,-22.9656533410468,0 -43.17460783117355,-22.96629344895898,0 -43.17320978293409,-22.96637331958709,0 -43.17219014450928,-22.96506709216329,0 -43.17624796709705,-22.95783437834606,0 -43.1768418679011,-22.9551941331197,0 -43.17375340417799,-22.95143887216372,0 -43.17782305311461,-22.94891094352267,0 -43.17987128331356,-22.94848796971264,0 -43.18081676377518,-22.9453914138381,0 -43.17981231475525,-22.94391074394341,0 -43.1785883255096,-22.94342929701702,0 -43.17616768918626,-22.94458176587211,0 -43.1739246195381,-22.94447076510842,0 -43.17059649100783,-22.94241909026536,0 -43.16965660986832,-22.94031634027056,0 -43.16971338117365,-22.93766727101789,0 -43.17197542086802,-22.93611403634557,0 -43.17291153273769,-22.93345035633488,0 -43.17093642945255,-22.92673249611331,0 -43.16995289208475,-22.9234166360394,0 -43.17071123617705,-22.92009204527994,0 -43.17254173731969,-22.92094431786728,0 -43.17151724695104,-22.92371635575279,0 -43.17443702303057,-22.93307917767548,0 -43.17359740936134,-22.93661609815403,0 -43.17088034906394,-22.9383869558297,0 -43.17104594904816,-22.94027503281379,0 -43.17353767747296,-22.94286363859466,0 -43.17553050077539,-22.94326942808286,0 -43.17768462006936,-22.94206150850139,0 -43.17950924630187,-22.94184715942755,0 -43.18192095243589,-22.94414250578954,0 -43.18240327273113,-22.94674238930916,0 -43.18164509698509,-22.94941629726095,0 -43.1787401168602,-22.95020135888785,0 -43.17595041977572,-22.95150134455287,0 -43.17824969675664,-22.95507131413734,0 -43.17768823432628,-22.95839273910796,0 -43.17622491602353,-22.96145322434265,0 -43.17741608608132,-22.96213030300013,0 -43.1815166352295,-22.96430707002542,0 -43.18620583738121,-22.9676406527086,0 -43.19033344344471,-22.97059506470836,0 -43.1937005769505,-22.97563633546614,0 -43.19410940414264,-22.98016603607514,0 -43.19291368608298,-22.98387020497999,0 -43.19684875330062,-22.98460640823581,0 -43.21726756885647,-22.98343046479312,0 -43.22871523435135,-22.9860731930507,0 -43.22894163367521,-22.98818366622876,0 -43.22865155818197,-22.98961202114093,0 -43.22998769262981,-22.99010011853001,0 -43.23126941105927,-22.98979602546086,0 -43.23374714798243,-22.99104660833704,0 -43.23504949936505,-22.99259062539738,0 -43.23474574749086,-22.99392532999836,0 -43.23579194509009,-22.99522206929455,0 -43.23824461996274,-22.99677000735211,0 -43.23990919332874,-22.99729786546191,0 -43.24151671201918,-22.99923208732626,0 -43.24305076817642,-22.99948943244456,0 -43.2448291637284,-23.00010739868242,0 -43.24610411241694,-22.99981772079105,0 -43.24665889036986,-22.9988868547862,0 -43.25022353611871,-22.99837310766307,0 -43.25311264761034,-22.99802341728466,0 -43.25095949363921,-22.99326595603744,0 -43.25313135152658,-22.99068839746447,0 -43.26018268684528,-22.99512003878616,0 -43.26979264736918,-22.99849917192383,0 -43.27363329909466,-22.99975822752536,0 -43.27812845309969,-23.00341590146339,0 -43.2818888451968,-23.00555660219716,0 -43.28657523949722,-23.00786600882623,0 -43.28756905677518,-23.00951023216505,0 -43.29519427848162,-23.01246412480792,0 -43.29746180540836,-23.01250477606965,0 -43.30192333474031,-23.00969864864186,0 -43.30281564383483,-23.00821807937572,0 -43.30363462836372,-23.00680031458917,0 -43.30556112179654,-23.00679281476045,0 -43.31396682201031,-23.00601071854407,0 -43.31600653072893,-23.00566561296464,0 -43.32931346264267,-23.00047605713486,0 -43.34733829308254,-22.99961081844899,0 -43.36931941336977,-22.99967468824168,0 -43.38821658747933,-23.00011657836884,0 -43.40651118599906,-22.99952734596882,0 -43.41435578411186,-22.99973675822271,0 -43.42348995969967,-23.00213079838205,0 -43.43172349875559,-23.00528804884669,0 -43.43598589093781,-23.00630724435907,0 -43.42672763260771,-22.99834307574406,0 -43.42460132802422,-22.99709112966192,0 -43.41850130253323,-22.99119544277005,0 -43.41808330697187,-22.99007811732179,0 -43.4212302203405,-22.98726580459036,0 -43.4225476992164,-22.9882235040918,0 -43.41991913629145,-22.99018369760307,0 
						</coordinates>
					</LinearRing>
				</outerBoundaryIs>
			</Polygon>
		</Placemark>
		<Placemark>
			<name>FUNDAO-VILA</name>
			<styleUrl>#msn_ylw-pushpin</styleUrl>
			<Polygon>
				<tessellate>1</tessellate>
				<outerBoundaryIs>
					<LinearRing>
						<coordinates>
							-43.24347273371423,-22.83808562087496,0 -43.24180088254683,-22.84119535068104,0 -43.23962446669691,-22.84030607374166,0 -43.23734303460403,-22.84383064365203,0 -43.2398693222609,-22.84529888820491,0 -43.23890216776203,-22.84775489651568,0 -43.23521946854869,-22.85185768207302,0 -43.23790908097557,-22.8535444706135,0 -43.23852562499055,-22.85472971161856,0 -43.2349786846133,-22.85895094648831,0 -43.23993109231559,-22.86179681720191,0 -43.24313988366578,-22.86732184313171,0 -43.25018154399262,-22.87078825036197,0 -43.25649819208757,-22.87029887631219,0 -43.26634592760898,-22.87071411790773,0 -43.27372592049919,-22.87452156056391,0 -43.27803470385925,-22.87614894091471,0 -43.28013257313941,-22.87914114495691,0 -43.29008347834476,-22.88209424245756,0 -43.29274727328823,-22.88445514381999,0 -43.29623107448651,-22.8884246384822,0 -43.3014906707114,-22.8924299071176,0 -43.30244971435256,-22.8959421355175,0 -43.30416986809191,-22.89868515667796,0 -43.30668155395281,-22.90552167878112,0 -43.30859719559943,-22.90582570690722,0 -43.31240246259036,-22.90558323003122,0 -43.31512896628759,-22.90613487108612,0 -43.32290465308336,-22.91490346615747,0 -43.33132203252056,-22.9209310135791,0 -43.34059973007952,-22.92445040775046,0 -43.34417264450551,-22.92692096773163,0 -43.34744405916955,-22.93423961656901,0 -43.35291464579199,-22.94093270407686,0 -43.35623776285713,-22.9459270315441,0 -43.35842071994351,-22.95439894271193,0 -43.35785680537759,-22.9571162768051,0 -43.35882831666454,-22.95932931710041,0 -43.35932574011591,-22.96667801616947,0 -43.36372927629112,-22.97085456897854,0 -43.36572590785919,-22.9717406076358,0 -43.39790322689534,-22.97177253817413,0 -43.39951576774193,-22.96908967838728,0 -43.40211426655273,-22.96920394646419,0 -43.41539981395674,-22.98625263917161,0 -43.41799438683484,-22.98843354978615,0 -43.4224458981536,-22.98680232191716,0 -43.42351727081186,-22.98845725170537,0 -43.41824385979141,-22.99149421363667,0 -43.41365994216438,-22.98857470992559,0 -43.40147317574663,-22.97384128695061,0 -43.40056560603962,-22.97519721901107,0 -43.3633956226986,-22.97460397484861,0 -43.35569070604301,-22.96750685283899,0 -43.35581607046944,-22.95934221681685,0 -43.35501271960593,-22.95583190507136,0 -43.35573291354342,-22.95316307212202,0 -43.35496713190548,-22.94983948186307,0 -43.35068169023641,-22.94193742148936,0 -43.34531000507157,-22.93483703545362,0 -43.34207290216656,-22.92920459326198,0 -43.33898386425059,-22.92664157417105,0 -43.33139431197786,-22.92381698471805,0 -43.32322876062993,-22.91874808468213,0 -43.31460443823955,-22.90980852127529,0 -43.3124361262172,-22.9078849763451,0 -43.30857437268474,-22.90835919278336,0 -43.30519265517081,-22.9075116778051,0 -43.30110042422369,-22.89878479461927,0 -43.29848452274865,-22.8932970491175,0 -43.292084091654,-22.8878709599281,0 -43.28848517614994,-22.88442952156304,0 -43.28342820402874,-22.88311629956264,0 -43.27790134447837,-22.88047039607768,0 -43.27528536126839,-22.87779422507092,0 -43.27107497822016,-22.87631408889436,0 -43.26328583005086,-22.8726800743487,0 -43.2522458936036,-22.87357786789887,0 -43.24622497596818,-22.87264997265833,0 -43.24031531781059,-22.86870205200666,0 -43.23745856583137,-22.86315116861579,0 -43.23170633748025,-22.85950190176864,0 -43.23480537581768,-22.85460698107656,0 -43.2316762166056,-22.85233353395876,0 -43.23624909795871,-22.84574275464228,0 -43.23427173180897,-22.84401220458395,0 -43.23856123109933,-22.83769906839159,0 -43.24041258553285,-22.83678235802644,0 -43.24347273371423,-22.83808562087496,0 
						</coordinates>
					</LinearRing>
				</outerBoundaryIs>
			</Polygon>
		</Placemark>
		<Placemark>
			<name>GIG-FUNDAO VIA BRT</name>
			<styleUrl>#msn_ylw-pushpin</styleUrl>
			<Polygon>
				<tessellate>1</tessellate>
				<outerBoundaryIs>
					<LinearRing>
						<coordinates>
							-43.24502662955462,-22.81186760023405,0 -43.24696280509777,-22.81377553932737,0 -43.23283943598202,-22.82353274777822,0 -43.23836925731607,-22.83057115257333,0 -43.23880963169387,-22.83234024412348,0 -43.24334168639731,-22.83666676563931,0 -43.24268154592771,-22.83938297738238,0 -43.24125764160432,-22.84002123271006,0 -43.23956332809114,-22.83907761538336,0 -43.23998971075407,-22.83808347162388,0 -43.23573691614069,-22.83276362790193,0 -43.23452003874456,-22.83051725314106,0 -43.2296836456028,-22.82337968885389,0 -43.23116496968439,-22.82085717892152,0 -43.24502662955462,-22.81186760023405,0 
						</coordinates>
					</LinearRing>
				</outerBoundaryIs>
			</Polygon>
		</Placemark>
		<Placemark>
			<name>ZONASUL-LINHAAMARELA-VIAAVBRASIL</name>
			<styleUrl>#msn_ylw-pushpin</styleUrl>
			<Polygon>
				<tessellate>1</tessellate>
				<outerBoundaryIs>
					<LinearRing>
						<coordinates>
							-43.17264546416354,-22.9208861652731,0 -43.17114986000605,-22.92051536158375,0 -43.17353684410225,-22.91856402942967,0 -43.17424661972519,-22.91751604668499,0 -43.17372816144533,-22.91508153538126,0 -43.17125918600777,-22.91254262350116,0 -43.16880217964172,-22.91210563442873,0 -43.16784375795375,-22.91089307490881,0 -43.1678493183385,-22.904931864415,0 -43.17160961019346,-22.90372935149982,0 -43.17589790620929,-22.89886409083253,0 -43.17659006126878,-22.89690654091464,0 -43.1790300756016,-22.89615611127135,0 -43.18099152543473,-22.89622521968584,0 -43.19150893524072,-22.89246529844722,0 -43.19647899813651,-22.89235850702041,0 -43.2098240271024,-22.89791842376325,0 -43.21090057086413,-22.89788301403602,0 -43.21181452117301,-22.89677602392013,0 -43.21588916926745,-22.88890123309038,0 -43.21819343527768,-22.88813493394297,0 -43.22228657679661,-22.88815806952937,0 -43.22573017824079,-22.88455720631001,0 -43.22756215808045,-22.88441309795914,0 -43.22868140011875,-22.88471689456192,0 -43.23093225081892,-22.88617701398309,0 -43.23252822432843,-22.88654361906169,0 -43.23371978855671,-22.88581339132669,0 -43.23807681803498,-22.88116401517778,0 -43.24352407118035,-22.87331605171882,0 -43.2451810163672,-22.87110333624891,0 -43.24470421354838,-22.86986568160658,0 -43.24601090348592,-22.8693066574615,0 -43.2470802272017,-22.86968156395047,0 -43.24697548402489,-22.87089803468071,0 -43.23897291220771,-22.88197218011329,0 -43.23431690954005,-22.88687894809473,0 -43.23215665601367,-22.88762304063768,0 -43.2307078876997,-22.88750266563373,0 -43.22858377033315,-22.88615101214521,0 -43.22733199859581,-22.88547225558487,0 -43.22653127514469,-22.8857267382676,0 -43.22307048165131,-22.88868631346959,0 -43.22130817819382,-22.88944871390433,0 -43.21708992790972,-22.88941317282493,0 -43.21616597184819,-22.8904407135342,0 -43.2128822936075,-22.8975788409534,0 -43.21088960426394,-22.89901028870065,0 -43.20973032034821,-22.89892811084728,0 -43.19546551058643,-22.89338732099402,0 -43.19202822581385,-22.89359134124119,0 -43.18143462250194,-22.89702287162331,0 -43.17819995568301,-22.89732171628033,0 -43.17718074350665,-22.89805318733893,0 -43.17643621836228,-22.89960977516103,0 -43.17247588498041,-22.90434510895844,0 -43.16889784863836,-22.90581327908732,0 -43.16880641307283,-22.9105072021389,0 -43.16940966129983,-22.91128832476592,0 -43.17224142486691,-22.91179538620584,0 -43.17428456331274,-22.91385455284138,0 -43.17538695886683,-22.91565174267345,0 -43.17520918621599,-22.91837968273432,0 -43.17264546416354,-22.9208861652731,0 
						</coordinates>
					</LinearRing>
				</outerBoundaryIs>
			</Polygon>
		</Placemark>
		<Placemark>
			<name>DEODORO-FUNDAO</name>
			<styleUrl>#msn_ylw-pushpin</styleUrl>
			<Polygon>
				<tessellate>1</tessellate>
				<outerBoundaryIs>
					<LinearRing>
						<coordinates>
							-43.41650413809113,-22.86336886890679,0 -43.41575990951486,-22.86447464880518,0 -43.3930648416459,-22.85359863613132,0 -43.38580234166196,-22.85233018292639,0 -43.38449311579631,-22.8511859861389,0 -43.38107993788583,-22.84844175793654,0 -43.36236556756859,-22.83696585909016,0 -43.35937912205631,-22.83497536365832,0 -43.33872787672042,-22.82742105254316,0 -43.31774494333964,-22.82046010168452,0 -43.31456786153336,-22.82061359112205,0 -43.31124184408173,-22.82047206399415,0 -43.30902270667847,-22.81964926095879,0 -43.30472839967111,-22.81724152390172,0 -43.29498736657619,-22.81511299763246,0 -43.28912600098889,-22.81669544591375,0 -43.27029605951978,-22.83117796468959,0 -43.26216745723357,-22.83528342453259,0 -43.2551221993373,-22.83989711268912,0 -43.24898990481342,-22.84644334540365,0 -43.24819104361577,-22.84844545855144,0 -43.24828407390931,-22.84999085670844,0 -43.24922822081966,-22.85080400888826,0 -43.24913975622729,-22.85167558389487,0 -43.24826640159494,-22.85193370263218,0 -43.24690423502658,-22.85178527086086,0 -43.24590793617799,-22.85009082181881,0 -43.24246479064925,-22.84725131070805,0 -43.24325783991698,-22.84631769800216,0 -43.24503845029952,-22.8471982722135,0 -43.24646782292139,-22.84858415477516,0 -43.2468503031782,-22.84645721927302,0 -43.25409302892988,-22.83830448758389,0 -43.26911808380783,-22.8301205930996,0 -43.28859452510583,-22.81497522901962,0 -43.29425713859057,-22.81368731436364,0 -43.30640990754372,-22.81576543397142,0 -43.31098512711703,-22.81862068532869,0 -43.3187257924019,-22.81901600295171,0 -43.35758533677313,-22.83212292392786,0 -43.38374201189954,-22.84790387465853,0 -43.38701300612962,-22.8505972527508,0 -43.39487345147601,-22.85251997830205,0 -43.41650413809113,-22.86336886890679,0 
						</coordinates>
					</LinearRing>
				</outerBoundaryIs>
			</Polygon>
		</Placemark>
	</Folder>
</Document>
</kml>
